{
  "name": "R&B",
  "slug": "rb",
  "page": 37,
  "totalPages": 37,
  "total": 1442,
  "songs": [
    {
      "id": 75077,
      "title": "Back Street",
      "titleSlug": "back-street",
      "artists": [
        {
          "id": 5491,
          "name": "Edwin starr",
          "slug": "edwin-starr",
          "prefix": "",
          "artistorigin": "US"
        }
      ],
      "genres": [
        {
          "name": "Northern Soul",
          "slug": "northern-soul",
          "term_id": 5492
        }
      ],
      "styles": [
        2847
      ],
      "vocals": [
        {
          "name": "M",
          "slug": "male",
          "term_id": 2866
        }
      ],
      "releaseDate": "1965-10-01T22:01:32",
      "thumbnail": "https://sub.music8.jp/wp-content/uploads/ab67616d0000b27361a2f74c75a70b6562eaf2c0-1.jpg",
      "videoId": "cr7ADj0rhvE",
      "spotifyTrackId": "3RkJsA0JxopALjE3Nkfrm7",
      "content": "<p>edwin starr - Back Street</p>\n",
      "acf": {
        "artist_order": [
          ""
        ],
        "spotify_artists": [
          "Edwin Starr"
        ],
        "likecount": ""
      },
      "slug": "back-street"
    },
    {
      "id": 75059,
      "title": "Agent Double-O Soul",
      "titleSlug": "agent-double-o-soul",
      "artists": [
        {
          "id": 5491,
          "name": "Edwin starr",
          "slug": "edwin-starr",
          "prefix": "",
          "artistorigin": "US"
        }
      ],
      "genres": [
        {
          "name": "Motown Sound",
          "slug": "motown-sound",
          "term_id": 5493
        },
        {
          "name": "Northern Soul",
          "slug": "northern-soul",
          "term_id": 5492
        }
      ],
      "styles": [
        2847
      ],
      "vocals": [
        {
          "name": "M",
          "slug": "male",
          "term_id": 2866
        }
      ],
      "releaseDate": "1965-06-01T21:34:45",
      "thumbnail": "https://sub.music8.jp/wp-content/uploads/ab67616d0000b273929a810cc5016d38f0b55684.jpg",
      "videoId": "bWujHzrepyo",
      "spotifyTrackId": "23CMTOcuR6nPHxG5ol0mB5",
      "content": "<p>Edwin starr - Agent Double-O Soul</p>\n",
      "acf": {
        "artist_order": [
          ""
        ],
        "spotify_artists": [
          "Edwin Starr"
        ],
        "likecount": "1"
      },
      "slug": "agent-double-o-soul"
    }
  ]
}