{
  "name": "Pop",
  "slug": "pop",
  "page": 165,
  "totalPages": 165,
  "total": 6578,
  "songs": [
    {
      "id": 94419,
      "title": "Stuck Inside of Mobile",
      "titleSlug": "stuck-inside-of-mobile",
      "artists": [
        {
          "id": 4390,
          "name": "Bob Dylan",
          "slug": "bob-dylan",
          "prefix": "",
          "artistorigin": "US"
        }
      ],
      "genres": [
        {
          "name": "Funk rock",
          "slug": "funk-rock",
          "term_id": 527
        }
      ],
      "styles": [
        2844
      ],
      "vocals": [
        {
          "name": "M",
          "slug": "male",
          "term_id": 2866
        }
      ],
      "releaseDate": "1966-06-20T00:00:00",
      "thumbnail": "https://sub.music8.jp/wp-content/uploads/bob-dylan-memphis-blues-again-stuck-inside-of-mobile.jpg",
      "videoId": "3kh6K_-a0c4",
      "spotifyTrackId": "1NYTj6JEw3IOh4ggiBh82h",
      "content": "<p>Bob Dylan, Memphis Blues Again - Stuck Inside of Mobile</p>\n",
      "acf": {
        "artist_order": [
          ""
        ],
        "spotify_artists": [
          "Bob Dylan"
        ],
        "likecount": "1"
      },
      "slug": "stuck-inside-of-mobile"
    },
    {
      "id": 94172,
      "title": "I Want You",
      "titleSlug": "i-want-you-8",
      "artists": [
        {
          "id": 4390,
          "name": "Bob Dylan",
          "slug": "bob-dylan",
          "prefix": "",
          "artistorigin": "US"
        }
      ],
      "genres": [
        {
          "name": "Folk rock",
          "slug": "folk-rock",
          "term_id": 519
        }
      ],
      "styles": [
        2844
      ],
      "vocals": [
        {
          "name": "M",
          "slug": "male",
          "term_id": 2866
        }
      ],
      "releaseDate": "1966-06-10T00:00:00",
      "thumbnail": "https://sub.music8.jp/wp-content/uploads/bob-dylan-i-want-you.jpg",
      "videoId": "-iIS6ZZ9RVA",
      "spotifyTrackId": "7tJQ4Ekp2vN3NlI3vJJW3v",
      "content": "<p>Bob Dylan - I Want You</p>\n",
      "acf": {
        "artist_order": [
          ""
        ],
        "spotify_artists": [
          "Bob Dylan"
        ],
        "likecount": ""
      },
      "slug": "i-want-you-8"
    },
    {
      "id": 94390,
      "title": "One of Us Must Know",
      "titleSlug": "one-of-us-must-know",
      "artists": [
        {
          "id": 4390,
          "name": "Bob Dylan",
          "slug": "bob-dylan",
          "prefix": "",
          "artistorigin": "US"
        }
      ],
      "genres": [
        {
          "name": "Folk rock",
          "slug": "folk-rock",
          "term_id": 519
        }
      ],
      "styles": [
        2844
      ],
      "vocals": [
        {
          "name": "M",
          "slug": "male",
          "term_id": 2866
        }
      ],
      "releaseDate": "1966-02-14T00:00:00",
      "thumbnail": "https://sub.music8.jp/wp-content/uploads/bob-dylan-one-of-us-must-know.jpg",
      "videoId": "Bq-bNR-z7Nk",
      "spotifyTrackId": "40GFPBolcy0yucApV9uxq2",
      "content": "<p>Bob Dylan - One of Us Must Know</p>\n",
      "acf": {
        "artist_order": [
          ""
        ],
        "spotify_artists": [
          "Bob Dylan"
        ],
        "likecount": "1"
      },
      "slug": "one-of-us-must-know"
    },
    {
      "id": 94380,
      "title": "Can You Please Crawl Out Your Window?",
      "titleSlug": "can-you-please-crawl-out-your-window",
      "artists": [
        {
          "id": 4390,
          "name": "Bob Dylan",
          "slug": "bob-dylan",
          "prefix": "",
          "artistorigin": "US"
        }
      ],
      "genres": [
        {
          "name": "Folk rock",
          "slug": "folk-rock",
          "term_id": 519
        }
      ],
      "styles": [
        2844
      ],
      "vocals": [
        {
          "name": "M",
          "slug": "male",
          "term_id": 2866
        }
      ],
      "releaseDate": "1965-12-21T00:00:00",
      "thumbnail": "https://sub.music8.jp/wp-content/uploads/bob-dylan-can-you-please-crawl-out-your-window.jpg",
      "videoId": "3EF1mDgfKKM",
      "spotifyTrackId": "75dsNSdeYpwzfIhIMPXH0M",
      "content": "<p>Bob Dylan - Can You Please Crawl Out Your Window?</p>\n",
      "acf": {
        "artist_order": [
          ""
        ],
        "spotify_artists": [
          "Bob Dylan"
        ],
        "likecount": ""
      },
      "slug": "can-you-please-crawl-out-your-window"
    },
    {
      "id": 105260,
      "title": "California Dreamin'",
      "titleSlug": "california-dreamin-2",
      "artists": [
        {
          "id": 7160,
          "name": "Mamas &amp; The Papas",
          "slug": "mamas-the-papas",
          "prefix": "1",
          "artistorigin": "US"
        }
      ],
      "genres": [
        {
          "name": "Folk rock",
          "slug": "folk-rock",
          "term_id": 519
        },
        {
          "name": "Psychedelic pop",
          "slug": "psychedelic-pop",
          "term_id": 677
        },
        {
          "name": "Soft rock",
          "slug": "soft-rock",
          "term_id": 6
        },
        {
          "name": "Sunshine pop",
          "slug": "sunshine-pop",
          "term_id": 728
        }
      ],
      "styles": [
        2844
      ],
      "vocals": [
        {
          "name": "F",
          "slug": "female",
          "term_id": 2851
        },
        {
          "name": "M",
          "slug": "male",
          "term_id": 2866
        }
      ],
      "releaseDate": "1965-12-01T22:33:33",
      "thumbnail": "https://sub.music8.jp/wp-content/uploads/the-mamas-the-papas-california-dreamin.jpg",
      "videoId": "oU6uUEwZ8FM",
      "spotifyTrackId": "4s6LhHAV5SEsOV0lC2tjvJ",
      "content": "<p>The Mamas & The Papas - California Dreamin'</p>\n",
      "acf": {
        "artist_order": [
          ""
        ],
        "spotify_artists": [
          "The Mamas & The Papas"
        ],
        "likecount": [
          "1"
        ]
      },
      "slug": "california-dreamin-2"
    },
    {
      "id": 49631,
      "title": "Thunderball",
      "titleSlug": "thunderball",
      "artists": [
        {
          "id": 997,
          "name": "Tom Jones",
          "slug": "tom-jones",
          "prefix": "",
          "artistorigin": "UK"
        }
      ],
      "genres": [
        {
          "name": "Pop",
          "slug": "pop",
          "term_id": 655
        },
        {
          "name": "Soul",
          "slug": "soul",
          "term_id": 719
        }
      ],
      "styles": [
        2844
      ],
      "vocals": [
        {
          "name": "M",
          "slug": "male",
          "term_id": 2866
        }
      ],
      "releaseDate": "1965-11-01T16:41:00",
      "thumbnail": "https://sub.music8.jp/wp-content/uploads/Tom-Jones-Thunderball.webp",
      "videoId": "XYNzL42AsI4",
      "spotifyTrackId": "0Cq5h2Xnn6EqA5dhDQUcss",
      "content": "<p>Tom Jones - Thunderball</p>\n",
      "acf": {
        "artist_order": [
          null,
          null,
          null,
          null,
          null
        ],
        "spotify_artists": [
          "Tom Jones"
        ],
        "likecount": "0"
      },
      "slug": "thunderball"
    },
    {
      "id": 94247,
      "title": "Highway 61 Revisited",
      "titleSlug": "highway-61-revisited",
      "artists": [
        {
          "id": 4390,
          "name": "Bob Dylan",
          "slug": "bob-dylan",
          "prefix": "",
          "artistorigin": "US"
        }
      ],
      "genres": [
        {
          "name": "Folk rock",
          "slug": "folk-rock",
          "term_id": 519
        },
        {
          "name": "Garage rock",
          "slug": "garage-rock",
          "term_id": 536
        }
      ],
      "styles": [
        2844
      ],
      "vocals": [
        {
          "name": "M",
          "slug": "male",
          "term_id": 2866
        }
      ],
      "releaseDate": "1965-08-30T00:00:00",
      "thumbnail": "https://sub.music8.jp/wp-content/uploads/bob-dylan-highway-61-revisited.jpg",
      "videoId": "8hr3Stnk8_k",
      "spotifyTrackId": "6os5B6xjuke9YfBKH3tu1e",
      "content": "<p>Bob Dylan - Highway 61 Revisited</p>\n",
      "acf": {
        "artist_order": [
          ""
        ],
        "spotify_artists": [
          "Bob Dylan"
        ],
        "likecount": ""
      },
      "slug": "highway-61-revisited"
    },
    {
      "id": 94243,
      "title": "It Takes a Lot to Laugh, It Takes a Train to Cry",
      "titleSlug": "it-takes-a-lot-to-laugh-it-takes-a-train-to-cry",
      "artists": [
        {
          "id": 4390,
          "name": "Bob Dylan",
          "slug": "bob-dylan",
          "prefix": "",
          "artistorigin": "US"
        }
      ],
      "genres": [
        {
          "name": "Blues rock",
          "slug": "blues-rock",
          "term_id": 433
        }
      ],
      "styles": [
        2844
      ],
      "vocals": [
        {
          "name": "M",
          "slug": "male",
          "term_id": 2866
        }
      ],
      "releaseDate": "1965-07-29T00:00:00",
      "thumbnail": "https://sub.music8.jp/wp-content/uploads/bob-dylan-it-takes-a-lot-to-laugh-it-takes-a-train-to-cry.jpg",
      "videoId": "SN1ACh8lzHg",
      "spotifyTrackId": "2yaf46YMxA5y6bzmWUKgXC",
      "content": "<p>Bob Dylan - It Takes a Lot to Laugh, It Takes a Train to Cry</p>\n",
      "acf": {
        "artist_order": [
          ""
        ],
        "spotify_artists": [
          "Bob Dylan"
        ],
        "likecount": ""
      },
      "slug": "it-takes-a-lot-to-laugh-it-takes-a-train-to-cry"
    },
    {
      "id": 64232,
      "title": "Like a Rolling Stone",
      "titleSlug": "like-a-rolling-stone",
      "artists": [
        {
          "id": 4390,
          "name": "Bob Dylan",
          "slug": "bob-dylan",
          "prefix": "",
          "artistorigin": "US"
        }
      ],
      "genres": [
        {
          "name": "Folk rock",
          "slug": "folk-rock",
          "term_id": 519
        }
      ],
      "styles": [
        2844
      ],
      "vocals": [
        {
          "name": "M",
          "slug": "male",
          "term_id": 2866
        }
      ],
      "releaseDate": "1965-07-20T21:21:01",
      "thumbnail": "https://sub.music8.jp/wp-content/uploads/ab67616d0000b27341720ef0ae31e10d39e43ca2.jpg",
      "videoId": "IwOfCgkyEj0",
      "spotifyTrackId": "3AhXZa8sUQht0UEdBJgpGc",
      "content": "<p>Bob Dylan - Like a Rolling Stone</p>\n",
      "acf": {
        "artist_order": [
          ""
        ],
        "spotify_artists": [
          "ボブ・ディラン"
        ],
        "likecount": "1"
      },
      "slug": "like-a-rolling-stone"
    },
    {
      "id": 49633,
      "title": "What's New Pussycat?",
      "titleSlug": "whats-new-pussycat",
      "artists": [
        {
          "id": 997,
          "name": "Tom Jones",
          "slug": "tom-jones",
          "prefix": "",
          "artistorigin": "UK"
        }
      ],
      "genres": [
        {
          "name": "Pop",
          "slug": "pop",
          "term_id": 655
        }
      ],
      "styles": [
        2844
      ],
      "vocals": [
        {
          "name": "M",
          "slug": "male",
          "term_id": 2866
        }
      ],
      "releaseDate": "1965-06-05T16:37:00",
      "thumbnail": "https://sub.music8.jp/wp-content/uploads/Tom-Jones-Whats-New-Pussycat.jpg",
      "videoId": "qQvIAs-nPSo",
      "spotifyTrackId": "4HjwGX3pJKJTeOSDpT6GCo",
      "content": "<p>Tom Jones - What's New Pussycat?</p>\n",
      "acf": {
        "artist_order": [
          null,
          null,
          null,
          null,
          null
        ],
        "spotify_artists": [
          "Tom Jones"
        ],
        "likecount": "0"
      },
      "slug": "whats-new-pussycat"
    },
    {
      "id": 94430,
      "title": "Love Minus Zero",
      "titleSlug": "love-minus-zero-2",
      "artists": [
        {
          "id": 4390,
          "name": "Bob Dylan",
          "slug": "bob-dylan",
          "prefix": "",
          "artistorigin": "US"
        }
      ],
      "genres": [
        {
          "name": "Folk rock",
          "slug": "folk-rock",
          "term_id": 519
        }
      ],
      "styles": [
        2844
      ],
      "vocals": [
        {
          "name": "M",
          "slug": "male",
          "term_id": 2866
        }
      ],
      "releaseDate": "1965-03-23T00:00:00",
      "thumbnail": "https://sub.music8.jp/wp-content/uploads/bob-dylan-love-minus-zero.jpg",
      "videoId": "7ZzyRcySgK8",
      "spotifyTrackId": "2FDTgrYDUdQKyGmtynEk90",
      "content": "<p>Bob Dylan - Love Minus Zero</p>\n",
      "acf": {
        "artist_order": [
          ""
        ],
        "spotify_artists": [
          "Bob Dylan"
        ],
        "likecount": ""
      },
      "slug": "love-minus-zero-2"
    },
    {
      "id": 64224,
      "title": "The Times They Are A-Changin'",
      "titleSlug": "the-times-they-are-a-changin",
      "artists": [
        {
          "id": 4390,
          "name": "Bob Dylan",
          "slug": "bob-dylan",
          "prefix": "",
          "artistorigin": "US"
        }
      ],
      "genres": [
        {
          "name": "Folk",
          "slug": "folk",
          "term_id": 516
        }
      ],
      "styles": [
        2844
      ],
      "vocals": [
        {
          "name": "M",
          "slug": "male",
          "term_id": 2866
        }
      ],
      "releaseDate": "1965-03-08T21:13:36",
      "thumbnail": "https://sub.music8.jp/wp-content/uploads/ab67616d0000b2733b812eed53f0d7e134fe446e.jpg",
      "videoId": "90WD_ats6eE",
      "spotifyTrackId": "52vA3CYKZqZVdQnzRrdZt6",
      "content": "<p>Bob Dylan - The Times They Are A-Changin'</p>\n",
      "acf": {
        "artist_order": [
          ""
        ],
        "spotify_artists": [
          "ボブ・ディラン"
        ],
        "likecount": "1"
      },
      "slug": "the-times-they-are-a-changin"
    },
    {
      "id": 49635,
      "title": "It's Not Unusual",
      "titleSlug": "its-not-unusual",
      "artists": [
        {
          "id": 997,
          "name": "Tom Jones",
          "slug": "tom-jones",
          "prefix": "",
          "artistorigin": "UK"
        }
      ],
      "genres": [
        {
          "name": "Pop",
          "slug": "pop",
          "term_id": 655
        }
      ],
      "styles": [
        2844
      ],
      "vocals": [
        {
          "name": "M",
          "slug": "male",
          "term_id": 2866
        }
      ],
      "releaseDate": "1965-01-22T16:33:00",
      "thumbnail": "https://sub.music8.jp/wp-content/uploads/Tom-Jones-Its-Not-Unusual.jpg",
      "videoId": "k-HdGnzYdFQ",
      "spotifyTrackId": "3TlIt0ReIxPsVZcOEivT5U",
      "content": "<p>Tom Jones - It's Not Unusual</p>\n",
      "acf": {
        "artist_order": [
          null,
          null,
          null,
          null,
          null
        ],
        "spotify_artists": [
          "Tom Jones"
        ],
        "likecount": "1"
      },
      "slug": "its-not-unusual"
    },
    {
      "id": 94413,
      "title": "It Ain't Me Babe",
      "titleSlug": "it-aint-me-babe-3",
      "artists": [
        {
          "id": 4390,
          "name": "Bob Dylan",
          "slug": "bob-dylan",
          "prefix": "",
          "artistorigin": "US"
        }
      ],
      "genres": [
        {
          "name": "Folk",
          "slug": "folk",
          "term_id": 516
        }
      ],
      "styles": [
        2844
      ],
      "vocals": [
        {
          "name": "M",
          "slug": "male",
          "term_id": 2866
        }
      ],
      "releaseDate": "1964-08-08T00:00:00",
      "thumbnail": "https://sub.music8.jp/wp-content/uploads/bob-dylan-it-aint-me-babe.jpg",
      "videoId": "YoagldK69U0",
      "spotifyTrackId": "5nbNWAfT1S6V1vqj3snHxS",
      "content": "<p>Bob Dylan - It Ain't Me Babe</p>\n",
      "acf": {
        "artist_order": [
          ""
        ],
        "spotify_artists": [
          "Bob Dylan"
        ],
        "likecount": ""
      },
      "slug": "it-aint-me-babe-3"
    },
    {
      "id": 64219,
      "title": "Blowin' in the Wind",
      "titleSlug": "blowin-in-the-wind",
      "artists": [
        {
          "id": 4390,
          "name": "Bob Dylan",
          "slug": "bob-dylan",
          "prefix": "",
          "artistorigin": "US"
        }
      ],
      "genres": [
        {
          "name": "Folk",
          "slug": "folk",
          "term_id": 516
        }
      ],
      "styles": [
        2844
      ],
      "vocals": [
        {
          "name": "M",
          "slug": "male",
          "term_id": 2866
        }
      ],
      "releaseDate": "1963-08-13T21:05:51",
      "thumbnail": "https://sub.music8.jp/wp-content/uploads/ab67616d0000b2737d214af8499aa95ad220f573.jpg",
      "videoId": "MMFj8uDubsE",
      "spotifyTrackId": "18GiV1BaXzPVYpp9rmOg0E",
      "content": "<p>Bob Dylan - Blowin' in the Wind</p>\n",
      "acf": {
        "artist_order": [
          ""
        ],
        "spotify_artists": [
          "ボブ・ディラン"
        ],
        "likecount": "1"
      },
      "slug": "blowin-in-the-wind"
    },
    {
      "id": 94237,
      "title": "Don't Think Twice, It's All Right",
      "titleSlug": "dont-think-twice-its-all-right",
      "artists": [
        {
          "id": 4390,
          "name": "Bob Dylan",
          "slug": "bob-dylan",
          "prefix": "",
          "artistorigin": "US"
        }
      ],
      "genres": [
        {
          "name": "Folk",
          "slug": "folk",
          "term_id": 516
        }
      ],
      "styles": [
        2844
      ],
      "vocals": [
        {
          "name": "M",
          "slug": "male",
          "term_id": 2866
        }
      ],
      "releaseDate": "1963-08-01T00:00:00",
      "thumbnail": "https://sub.music8.jp/wp-content/uploads/bob-dylan-dont-think-twice-its-all-right.jpg",
      "videoId": "1iHhWh9FtsQ",
      "spotifyTrackId": "2WOjLF83vqjit2Zh4B69V3",
      "content": "<p>Bob Dylan - Don't Think Twice, It's All Right</p>\n",
      "acf": {
        "artist_order": [
          ""
        ],
        "spotify_artists": [
          "Bob Dylan"
        ],
        "likecount": "1"
      },
      "slug": "dont-think-twice-its-all-right"
    },
    {
      "id": 94386,
      "title": "Mixed-Up Confusion",
      "titleSlug": "mixed-up-confusion",
      "artists": [
        {
          "id": 4390,
          "name": "Bob Dylan",
          "slug": "bob-dylan",
          "prefix": "",
          "artistorigin": "US"
        }
      ],
      "genres": [
        {
          "name": "Folk rock",
          "slug": "folk-rock",
          "term_id": 519
        }
      ],
      "styles": [
        2844
      ],
      "vocals": [
        {
          "name": "M",
          "slug": "male",
          "term_id": 2866
        }
      ],
      "releaseDate": "1962-12-14T00:00:00",
      "thumbnail": "https://sub.music8.jp/wp-content/uploads/bob-dylan-mixed-up-confusion.jpg",
      "videoId": "S6FrGGq1ZUY",
      "spotifyTrackId": "1jppGvtOCks7JA6MMqzGaB",
      "content": "<p>Bob Dylan - Mixed-Up Confusion</p>\n",
      "acf": {
        "artist_order": [
          ""
        ],
        "spotify_artists": [
          "Bob Dylan"
        ],
        "likecount": ""
      },
      "slug": "mixed-up-confusion"
    },
    {
      "id": 49637,
      "title": "Rockin' Around The Christmas Tree",
      "titleSlug": "rockin-around-the-christmas-tree",
      "artists": [
        {
          "id": 1600,
          "name": "Brenda Lee",
          "slug": "brenda-lee",
          "prefix": "",
          "artistorigin": ""
        }
      ],
      "genres": [
        {
          "name": "Christmas",
          "slug": "christmas",
          "term_id": 455
        },
        {
          "name": "Rock and roll",
          "slug": "rock-and-roll",
          "term_id": 699
        },
        {
          "name": "Rockabilly",
          "slug": "rockabilly",
          "term_id": 700
        }
      ],
      "styles": [
        2844
      ],
      "vocals": [
        {
          "name": "F",
          "slug": "female",
          "term_id": 2851
        }
      ],
      "releaseDate": "1958-11-17T13:34:00",
      "thumbnail": "https://sub.music8.jp/wp-content/uploads/Brenda-Lee-Rockin-Around-The-Christmas-Tree.webp",
      "videoId": "TFsZy9t-qDc",
      "spotifyTrackId": "2EjXfH91m7f8HiJN1yQg97",
      "content": "<p>Brenda Lee - Rockin' Around The Christmas Tree</p>\n",
      "acf": {
        "artist_order": [
          ""
        ],
        "spotify_artists": [
          "Brenda Lee"
        ],
        "likecount": "0"
      },
      "slug": "rockin-around-the-christmas-tree"
    }
  ]
}