{
  "name": "Electronica",
  "slug": "electronica",
  "page": 31,
  "totalPages": 31,
  "total": 1214,
  "songs": [
    {
      "id": 98878,
      "title": "Chime",
      "titleSlug": "chime",
      "artists": [
        {
          "id": 2987,
          "name": "Orbital",
          "slug": "orbital",
          "prefix": "",
          "artistorigin": "UK"
        }
      ],
      "genres": [
        {
          "name": "Acid house",
          "slug": "acid-house",
          "term_id": 393
        },
        {
          "name": "Techno",
          "slug": "techno",
          "term_id": 742
        }
      ],
      "styles": [
        2846
      ],
      "vocals": [],
      "releaseDate": "1989-12-01T23:03:03",
      "thumbnail": "https://sub.music8.jp/wp-content/uploads/orbital-chime.jpg",
      "videoId": "KAxB2EnJvtY",
      "spotifyTrackId": "5LOKOBboMIbi4moxpjuFL5",
      "content": "<p>Orbital - Chime</p>\n",
      "acf": {
        "artist_order": [
          ""
        ],
        "spotify_artists": [
          "Orbital"
        ],
        "likecount": "1"
      },
      "slug": "chime"
    },
    {
      "id": 75250,
      "title": "Jack the Lad",
      "titleSlug": "jack-the-lad",
      "artists": [
        {
          "id": 5500,
          "name": "3 Man Island",
          "slug": "3-man-island",
          "prefix": "",
          "artistorigin": "UK"
        }
      ],
      "genres": [
        {
          "name": "House",
          "slug": "house",
          "term_id": 566
        },
        {
          "name": "Synth-pop",
          "slug": "synth-pop",
          "term_id": 736
        }
      ],
      "styles": [
        2846
      ],
      "vocals": [
        {
          "name": "F",
          "slug": "female",
          "term_id": 2851
        },
        {
          "name": "M",
          "slug": "male",
          "term_id": 2866
        }
      ],
      "releaseDate": "1988-01-01T22:45:27",
      "thumbnail": "https://sub.music8.jp/wp-content/uploads/3-MAN-ISLAND-Jack-the-Lad.jpg",
      "videoId": "bocua4fyCcI",
      "spotifyTrackId": "",
      "content": "<p>3 MAN ISLAND - Jack the Lad</p>\n",
      "acf": {
        "artist_order": [
          ""
        ],
        "spotify_artists": [
          ""
        ],
        "likecount": "1"
      },
      "slug": "jack-the-lad"
    },
    {
      "id": 47823,
      "title": "Dragnet",
      "titleSlug": "dragnet",
      "artists": [
        {
          "id": 996,
          "name": "Art of Noise",
          "slug": "art-of-noise",
          "prefix": "",
          "artistorigin": "UK"
        }
      ],
      "genres": [
        {
          "name": "Big band",
          "slug": "big-band",
          "term_id": 5376
        },
        {
          "name": "Synth-pop",
          "slug": "synth-pop",
          "term_id": 736
        }
      ],
      "styles": [
        2846
      ],
      "vocals": [],
      "releaseDate": "1987-07-01T20:57:00",
      "thumbnail": "https://sub.music8.jp/wp-content/uploads/The-Art-of-Noise-Dragnet.jpg",
      "videoId": "7y5U2N891E0",
      "spotifyTrackId": "7yyZwnqXDbF5CeEEqNtAb7",
      "content": "<p>The Art of Noise - Dragnet</p>\n",
      "acf": {
        "artist_order": [
          ""
        ],
        "spotify_artists": [
          "The Art Of Noise"
        ],
        "likecount": "1"
      },
      "slug": "dragnet"
    },
    {
      "id": 48072,
      "title": "Legs",
      "titleSlug": "legs",
      "artists": [
        {
          "id": 996,
          "name": "Art of Noise",
          "slug": "art-of-noise",
          "prefix": "",
          "artistorigin": "UK"
        }
      ],
      "genres": [
        {
          "name": "Avant-garde",
          "slug": "avant-garde",
          "term_id": 422
        },
        {
          "name": "Synth-pop",
          "slug": "synth-pop",
          "term_id": 736
        }
      ],
      "styles": [
        2846
      ],
      "vocals": [
        {
          "name": "Inst",
          "slug": "inst",
          "term_id": 2852
        }
      ],
      "releaseDate": "1986-04-14T20:28:00",
      "thumbnail": "https://sub.music8.jp/wp-content/uploads/The-Art-of-Noise-Legs.jpg",
      "videoId": "NeD1cyZ8IqQ",
      "spotifyTrackId": "2ADIvPnebvI3tEn1NLuNrx",
      "content": "<p>The Art of Noise - Legs</p>\n",
      "acf": {
        "artist_order": [
          null,
          null,
          null,
          null,
          null
        ],
        "spotify_artists": [
          "The Art Of Noise"
        ],
        "likecount": "1"
      },
      "slug": "legs"
    },
    {
      "id": 48078,
      "title": "Paranoimia",
      "titleSlug": "paranoimia",
      "artists": [
        {
          "id": 996,
          "name": "Art of Noise",
          "slug": "art-of-noise",
          "prefix": "",
          "artistorigin": "UK"
        }
      ],
      "genres": [
        {
          "name": "Synth-pop",
          "slug": "synth-pop",
          "term_id": 736
        }
      ],
      "styles": [
        2846
      ],
      "vocals": [
        {
          "name": "Inst",
          "slug": "inst",
          "term_id": 2852
        }
      ],
      "releaseDate": "1986-04-01T20:54:00",
      "thumbnail": "https://sub.music8.jp/wp-content/uploads/The-Art-of-Noise-with-Max-Headroom-Paranoimia.jpg",
      "videoId": "6epzmRZk6UU",
      "spotifyTrackId": "1pXJK26qbffLuGOQoJENgC",
      "content": "<p>The Art of Noise with Max Headroom - Paranoimia</p>\n",
      "acf": {
        "artist_order": [
          null,
          null,
          null,
          null,
          null
        ],
        "spotify_artists": [
          "The Art Of Noise",
          "Max Headroom"
        ],
        "likecount": "0"
      },
      "slug": "paranoimia"
    },
    {
      "id": 48100,
      "title": "Peter Gunn",
      "titleSlug": "peter-gunn2",
      "artists": [
        {
          "id": 996,
          "name": "Art of Noise",
          "slug": "art-of-noise",
          "prefix": "",
          "artistorigin": "UK"
        }
      ],
      "genres": [
        {
          "name": "Avant-garde",
          "slug": "avant-garde",
          "term_id": 422
        },
        {
          "name": "Synth-pop",
          "slug": "synth-pop",
          "term_id": 736
        }
      ],
      "styles": [
        2846
      ],
      "vocals": [
        {
          "name": "Inst",
          "slug": "inst",
          "term_id": 2852
        }
      ],
      "releaseDate": "1986-03-01T20:49:00",
      "thumbnail": "https://sub.music8.jp/wp-content/uploads/The-Art-Of-Noise-Peter-Gunn.jpg",
      "videoId": "ujJV8gtY_fQ",
      "spotifyTrackId": "5AP5fad3HD8dQpdrBWOw3K",
      "content": "<p>The Art Of Noise - Peter Gunn</p>\n",
      "acf": {
        "artist_order": [
          null,
          null,
          null,
          null,
          null
        ],
        "spotify_artists": [
          "The Art Of Noise",
          "Duane Eddy"
        ],
        "likecount": "0"
      },
      "slug": "peter-gunn2"
    },
    {
      "id": 73579,
      "title": "Bambaataa's Theme",
      "titleSlug": "bambaataas-theme",
      "artists": [
        {
          "id": 5429,
          "name": "Afrika Bambaataa",
          "slug": "afrika-bambaataa",
          "prefix": "",
          "artistorigin": "US"
        }
      ],
      "genres": [
        {
          "name": "Breakbeat",
          "slug": "breakbeat",
          "term_id": 440
        },
        {
          "name": "Electropop",
          "slug": "electropop",
          "term_id": 501
        }
      ],
      "styles": [
        2846
      ],
      "vocals": [
        {
          "name": "M",
          "slug": "male",
          "term_id": 2866
        }
      ],
      "releaseDate": "1986-01-12T22:47:48",
      "thumbnail": "https://sub.music8.jp/wp-content/uploads/ab67616d0000b27377209de87d1aee648176a15a.jpg",
      "videoId": "MAljiUOfL5o",
      "spotifyTrackId": "0AvJUSocUwsn9qGPsXR4XU",
      "content": "<p>Afrika Bambaataa - Bambaataa's Theme</p>\n",
      "acf": {
        "artist_order": [
          ""
        ],
        "spotify_artists": [
          "Afrika Bambaataa",
          "Family"
        ],
        "likecount": "1"
      },
      "slug": "bambaataas-theme"
    },
    {
      "id": 48312,
      "title": "Moments in Love",
      "titleSlug": "moments-in-love",
      "artists": [
        {
          "id": 996,
          "name": "Art of Noise",
          "slug": "art-of-noise",
          "prefix": "",
          "artistorigin": "UK"
        }
      ],
      "genres": [
        {
          "name": "Synth-pop",
          "slug": "synth-pop",
          "term_id": 736
        },
        {
          "name": "Trip hop",
          "slug": "trip-hop",
          "term_id": 751
        }
      ],
      "styles": [
        2846
      ],
      "vocals": [
        {
          "name": "Inst",
          "slug": "inst",
          "term_id": 2852
        }
      ],
      "releaseDate": "1985-04-01T20:43:00",
      "thumbnail": "https://sub.music8.jp/wp-content/uploads/The-Art-Of-Noise-Moments-in-Love.jpg",
      "videoId": "TcgHW-eJ7sM",
      "spotifyTrackId": "2bsczk82MWGPmTbe6IWYsa",
      "content": "<p>The Art Of Noise - Moments in Love</p>\n",
      "acf": {
        "artist_order": [
          null,
          null,
          null,
          null,
          null
        ],
        "spotify_artists": [
          "The Art Of Noise"
        ],
        "likecount": "1"
      },
      "slug": "moments-in-love"
    },
    {
      "id": 48438,
      "title": "Close (to the Edit)",
      "titleSlug": "close-to-the-edit",
      "artists": [
        {
          "id": 996,
          "name": "Art of Noise",
          "slug": "art-of-noise",
          "prefix": "",
          "artistorigin": "UK"
        }
      ],
      "genres": [
        {
          "name": "Avant-garde",
          "slug": "avant-garde",
          "term_id": 422
        },
        {
          "name": "Synth-pop",
          "slug": "synth-pop",
          "term_id": 736
        }
      ],
      "styles": [
        2846
      ],
      "vocals": [
        {
          "name": "Inst",
          "slug": "inst",
          "term_id": 2852
        }
      ],
      "releaseDate": "1984-10-01T20:39:00",
      "thumbnail": "https://sub.music8.jp/wp-content/uploads/The-Art-Of-Noise-Close-to-the-Edit.jpg",
      "videoId": "#NAME?",
      "spotifyTrackId": "3t295lJkdYDfunk8SlllXl",
      "content": "<p>The Art Of Noise - Close (to the Edit)</p>\n",
      "acf": {
        "artist_order": [
          null,
          null,
          null,
          null,
          null
        ],
        "spotify_artists": [
          "The Art Of Noise"
        ],
        "likecount": "1"
      },
      "slug": "close-to-the-edit"
    },
    {
      "id": 48633,
      "title": "Beat Box",
      "titleSlug": "beat-box",
      "artists": [
        {
          "id": 996,
          "name": "Art of Noise",
          "slug": "art-of-noise",
          "prefix": "",
          "artistorigin": "UK"
        }
      ],
      "genres": [
        {
          "name": "Avant-garde",
          "slug": "avant-garde",
          "term_id": 422
        },
        {
          "name": "Synth-pop",
          "slug": "synth-pop",
          "term_id": 736
        }
      ],
      "styles": [
        2846
      ],
      "vocals": [
        {
          "name": "Inst",
          "slug": "inst",
          "term_id": 2852
        }
      ],
      "releaseDate": "1983-12-01T20:35:00",
      "thumbnail": "https://sub.music8.jp/wp-content/uploads/The-Art-Of-Noise-Beat-Box.jpg",
      "videoId": "RKFeB30_0co",
      "spotifyTrackId": "5FXAYfEV6D2KrY9xzoqRdy",
      "content": "<p>The Art Of Noise - Beat Box</p>\n",
      "acf": {
        "artist_order": [
          ""
        ],
        "spotify_artists": [
          "The Art Of Noise"
        ],
        "likecount": "0"
      },
      "slug": "beat-box"
    },
    {
      "id": 73375,
      "title": "Rockit",
      "titleSlug": "rockit",
      "artists": [
        {
          "id": 5412,
          "name": "Herbie Hancock",
          "slug": "herbie-hancock",
          "prefix": "",
          "artistorigin": "US"
        }
      ],
      "genres": [
        {
          "name": "Funk",
          "slug": "funk",
          "term_id": 524
        },
        {
          "name": "Instrumental hip hop",
          "slug": "instrumental-hip-hop",
          "term_id": 581
        },
        {
          "name": "New wave",
          "slug": "new-wave",
          "term_id": 638
        },
        {
          "name": "Synth-funk",
          "slug": "synth-funk",
          "term_id": 735
        }
      ],
      "styles": [
        2846
      ],
      "vocals": [],
      "releaseDate": "1983-07-11T16:12:12",
      "thumbnail": "https://sub.music8.jp/wp-content/uploads/ab67616d0000b273efab1b00214fb882506ae630.jpg",
      "videoId": "GHhD4PD75zY",
      "spotifyTrackId": "2nWHzbBWBOePUvAImQv2So",
      "content": "<p>Herbie Hancock - Rockit</p>\n",
      "acf": {
        "artist_order": [
          ""
        ],
        "spotify_artists": [
          "ハービー・ハンコック"
        ],
        "likecount": "1"
      },
      "slug": "rockit"
    },
    {
      "id": 74378,
      "title": "San Juan",
      "titleSlug": "san-juan",
      "artists": [
        {
          "id": 5479,
          "name": "Shock",
          "slug": "shock",
          "prefix": "",
          "artistorigin": "US"
        }
      ],
      "genres": [
        {
          "name": "Jazz-funk",
          "slug": "jazz-funk",
          "term_id": 589
        },
        {
          "name": "Synth-funk",
          "slug": "synth-funk",
          "term_id": 735
        }
      ],
      "styles": [
        2846
      ],
      "vocals": [],
      "releaseDate": "1983-01-01T15:52:22",
      "thumbnail": "https://sub.music8.jp/wp-content/uploads/Shock-San-Juan.jpg",
      "videoId": "qsV76S4u1kA",
      "spotifyTrackId": "",
      "content": "<p>Shock - San Juan</p>\n",
      "acf": {
        "artist_order": [
          ""
        ],
        "spotify_artists": [
          ""
        ],
        "likecount": "1"
      },
      "slug": "san-juan"
    },
    {
      "id": 80085,
      "title": "Solstice",
      "titleSlug": "solstice",
      "artists": [
        {
          "id": 5773,
          "name": "Brian Bennett",
          "slug": "brian-bennett",
          "prefix": "",
          "artistorigin": "UK"
        }
      ],
      "genres": [
        {
          "name": "Jazz-funk",
          "slug": "jazz-funk",
          "term_id": 589
        },
        {
          "name": "Rare groove",
          "slug": "rare-groove",
          "term_id": 5774
        },
        {
          "name": "Space disco",
          "slug": "space-disco",
          "term_id": 723
        }
      ],
      "styles": [
        2846
      ],
      "vocals": [],
      "releaseDate": "1978-01-01T19:46:12",
      "thumbnail": "https://sub.music8.jp/wp-content/uploads/ab67616d0000b273d66993d0ba51ac2f97814c8b.jpg",
      "videoId": "Ao5uiWUzMx4",
      "spotifyTrackId": "6zaXiO68HYdJZY8skqLjSG",
      "content": "<p>Brian Bennett - Solstice</p>\n",
      "acf": {
        "artist_order": [
          ""
        ],
        "spotify_artists": [
          "Brian Bennett"
        ],
        "likecount": "1"
      },
      "slug": "solstice"
    },
    {
      "id": 80089,
      "title": "Summer Madness",
      "titleSlug": "summer-madness",
      "artists": [
        {
          "id": 5239,
          "name": "Kool &amp; The Gang",
          "slug": "kool-the-gang",
          "prefix": "",
          "artistorigin": "US"
        }
      ],
      "genres": [
        {
          "name": "Jazz-funk",
          "slug": "jazz-funk",
          "term_id": 589
        },
        {
          "name": "Psychedelic soul",
          "slug": "psychedelic-soul",
          "term_id": 679
        },
        {
          "name": "Rare groove",
          "slug": "rare-groove",
          "term_id": 5774
        }
      ],
      "styles": [
        2846
      ],
      "vocals": [],
      "releaseDate": "1974-09-01T19:57:16",
      "thumbnail": "https://sub.music8.jp/wp-content/uploads/ab67616d0000b273d2eec6d3df2ed9bde807fd90.jpg",
      "videoId": "vQSI-rUUYqA",
      "spotifyTrackId": "2uMqG8w8oi09fB2YA2QLOm",
      "content": "<p>Kool & The Gang - Summer Madness</p>\n",
      "acf": {
        "artist_order": [
          ""
        ],
        "spotify_artists": [
          "Kool & The Gang"
        ],
        "likecount": "1"
      },
      "slug": "summer-madness"
    }
  ]
}