{
  "name": "Hip-Hop",
  "slug": "hip-hop",
  "page": 27,
  "totalPages": 27,
  "total": 1054,
  "songs": [
    {
      "id": 73435,
      "title": "The Breaks",
      "titleSlug": "the-breaks",
      "artists": [
        {
          "id": 3978,
          "name": "Kurtis Blow",
          "slug": "kurtis-blow",
          "prefix": "",
          "artistorigin": "US"
        }
      ],
      "genres": [
        {
          "name": "Funk",
          "slug": "funk",
          "term_id": 524
        },
        {
          "name": "Old-school hip hop",
          "slug": "old-school-hip-hop",
          "term_id": 647
        }
      ],
      "styles": [
        2848
      ],
      "vocals": [
        {
          "name": "M",
          "slug": "male",
          "term_id": 2866
        }
      ],
      "releaseDate": "1980-07-14T20:55:08",
      "thumbnail": "https://sub.music8.jp/wp-content/uploads/ab67616d0000b273cd22668f478035ac122f22c5.jpg",
      "videoId": "zyjK1CpM8JQ",
      "spotifyTrackId": "5TvcggVu3s2P1fMAS8BupX",
      "content": "<p>Kurtis Blow - The Breaks</p>\n",
      "acf": {
        "artist_order": [
          ""
        ],
        "spotify_artists": [
          "Kurtis Blow"
        ],
        "likecount": "1"
      },
      "slug": "the-breaks"
    },
    {
      "id": 73626,
      "title": "At the Party",
      "titleSlug": "at-the-party-2",
      "artists": [
        {
          "id": 5442,
          "name": "Treacherous Three",
          "slug": "treacherous-three",
          "prefix": "1",
          "artistorigin": "US"
        }
      ],
      "genres": [
        {
          "name": "Old-school hip hop",
          "slug": "old-school-hip-hop",
          "term_id": 647
        }
      ],
      "styles": [
        2848
      ],
      "vocals": [
        {
          "name": "M",
          "slug": "male",
          "term_id": 2866
        }
      ],
      "releaseDate": "1980-05-23T00:29:45",
      "thumbnail": "https://sub.music8.jp/wp-content/uploads/ab67616d0000b2737607b49b50ed8f4d31477c70.jpg",
      "videoId": "ab_FQgEij-8",
      "spotifyTrackId": "3scFILNV5Gjye17BULSoZc",
      "content": "<p>Treacherous Three - At the Party</p>\n",
      "acf": {
        "artist_order": [
          ""
        ],
        "spotify_artists": [
          "Treacherous Three"
        ],
        "likecount": "1"
      },
      "slug": "at-the-party-2"
    },
    {
      "id": 73630,
      "title": "The Body Rock",
      "titleSlug": "the-body-rock",
      "artists": [
        {
          "id": 5442,
          "name": "Treacherous Three",
          "slug": "treacherous-three",
          "prefix": "1",
          "artistorigin": "US"
        }
      ],
      "genres": [
        {
          "name": "Old-school hip hop",
          "slug": "old-school-hip-hop",
          "term_id": 647
        }
      ],
      "styles": [
        2848
      ],
      "vocals": [
        {
          "name": "M",
          "slug": "male",
          "term_id": 2866
        }
      ],
      "releaseDate": "1980-05-16T00:32:11",
      "thumbnail": "https://sub.music8.jp/wp-content/uploads/ab67616d0000b273c958e57bc3bdfa1a96ad8d99.jpg",
      "videoId": "bo8u7aQEmUo",
      "spotifyTrackId": "296O13m9fFkzPKDJh8YJXH",
      "content": "<p>Treacherous Three - The Body Rock</p>\n",
      "acf": {
        "artist_order": [
          ""
        ],
        "spotify_artists": [
          "Treacherous Three"
        ],
        "likecount": ""
      },
      "slug": "the-body-rock"
    },
    {
      "id": 73539,
      "title": "That's The Joint",
      "titleSlug": "thats-the-joint",
      "artists": [
        {
          "id": 5428,
          "name": "Funky 4+1",
          "slug": "funky-41",
          "prefix": "",
          "artistorigin": "US"
        }
      ],
      "genres": [
        {
          "name": "Old-school hip hop",
          "slug": "old-school-hip-hop",
          "term_id": 647
        }
      ],
      "styles": [
        2848
      ],
      "vocals": [
        {
          "name": "F",
          "slug": "female",
          "term_id": 2851
        },
        {
          "name": "M",
          "slug": "male",
          "term_id": 2866
        }
      ],
      "releaseDate": "1980-01-01T23:45:18",
      "thumbnail": "https://sub.music8.jp/wp-content/uploads/ab67616d0000b2731516e90b2da0304fe9b37383.jpg",
      "videoId": "SVxk9PW62Vk",
      "spotifyTrackId": "6ORBNIOV2eQ063or5OnW2G",
      "content": "<p>Funky 4+1 - That's The Joint</p>\n",
      "acf": {
        "artist_order": [
          ""
        ],
        "spotify_artists": [
          "Funky 4 + 1"
        ],
        "likecount": "1"
      },
      "slug": "thats-the-joint"
    },
    {
      "id": 73523,
      "title": "Love Rap",
      "titleSlug": "love-rap",
      "artists": [
        {
          "id": 5427,
          "name": "Spoonie Gee",
          "slug": "spoonie-gee",
          "prefix": "",
          "artistorigin": "US"
        }
      ],
      "genres": [
        {
          "name": "Old-school hip hop",
          "slug": "old-school-hip-hop",
          "term_id": 647
        }
      ],
      "styles": [
        2848
      ],
      "vocals": [
        {
          "name": "M",
          "slug": "male",
          "term_id": 2866
        }
      ],
      "releaseDate": "1980-01-01T23:28:54",
      "thumbnail": "https://sub.music8.jp/wp-content/uploads/ab67616d0000b2733be5217c5ef0f61f6d54a09b-1.jpg",
      "videoId": "mzlc_2-SSC4",
      "spotifyTrackId": "0x0BpNVV34TomMjNBKq9IM",
      "content": "<p>Spoonie Gee - Love Rap</p>\n",
      "acf": {
        "artist_order": [
          ""
        ],
        "spotify_artists": [
          "Spoonie Gee"
        ],
        "likecount": "1"
      },
      "slug": "love-rap"
    },
    {
      "id": 73519,
      "title": "Monster Jam",
      "titleSlug": "monster-jam",
      "artists": [
        {
          "id": 5427,
          "name": "Spoonie Gee",
          "slug": "spoonie-gee",
          "prefix": "",
          "artistorigin": "US"
        }
      ],
      "genres": [
        {
          "name": "Old-school hip hop",
          "slug": "old-school-hip-hop",
          "term_id": 647
        }
      ],
      "styles": [
        2848
      ],
      "vocals": [
        {
          "name": "F",
          "slug": "female",
          "term_id": 2851
        },
        {
          "name": "M",
          "slug": "male",
          "term_id": 2866
        }
      ],
      "releaseDate": "1980-01-01T23:25:40",
      "thumbnail": "https://sub.music8.jp/wp-content/uploads/ab67616d0000b2736aa4a720842fe7fdb53ea314-1.jpg",
      "videoId": "jHBu5_qLIas",
      "spotifyTrackId": "2UyoRef5vZttyPKfYRAQ4J",
      "content": "<p>Spoonie gee & The sequence - Monster Jam</p>\n",
      "acf": {
        "artist_order": [
          ""
        ],
        "spotify_artists": [
          "Spoonie Gee Meets The Sequence"
        ],
        "likecount": "1"
      },
      "slug": "monster-jam"
    },
    {
      "id": 73557,
      "title": "Zulu Nation Throwdown",
      "titleSlug": "zulu-nation-throwdown",
      "artists": [
        {
          "id": 5429,
          "name": "Afrika Bambaataa",
          "slug": "afrika-bambaataa",
          "prefix": "",
          "artistorigin": "US"
        }
      ],
      "genres": [
        {
          "name": "Old-school hip hop",
          "slug": "old-school-hip-hop",
          "term_id": 647
        }
      ],
      "styles": [
        2848
      ],
      "vocals": [
        {
          "name": "F",
          "slug": "female",
          "term_id": 2851
        },
        {
          "name": "M",
          "slug": "male",
          "term_id": 2866
        }
      ],
      "releaseDate": "1980-01-01T22:13:38",
      "thumbnail": "https://sub.music8.jp/wp-content/uploads/ab67616d0000b273733277b1236fac00a38ed48c.jpg",
      "videoId": "YwA6wvc5JMM",
      "spotifyTrackId": "4k6cMAgloBeWOmbeqD0Bs6",
      "content": "<p>Afrika Bambaataa - Zulu Nation Throwdown</p>\n",
      "acf": {
        "artist_order": [
          ""
        ],
        "spotify_artists": [
          "Afrika Bambaataa",
          "The Soulsonic Force",
          "Zulu Nation"
        ],
        "likecount": ""
      },
      "slug": "zulu-nation-throwdown"
    },
    {
      "id": 73713,
      "title": "B-Boy Boogie",
      "titleSlug": "b-boy-boogie",
      "artists": [
        {
          "id": 5454,
          "name": "DJ Kool Herc",
          "slug": "dj-kool-herc",
          "prefix": "",
          "artistorigin": "JAM"
        }
      ],
      "genres": [
        {
          "name": "Breakbeat",
          "slug": "breakbeat",
          "term_id": 440
        },
        {
          "name": "Old-school hip hop",
          "slug": "old-school-hip-hop",
          "term_id": 647
        }
      ],
      "styles": [
        2848
      ],
      "vocals": [
        {
          "name": "M",
          "slug": "male",
          "term_id": 2866
        }
      ],
      "releaseDate": "1980-01-01T11:51:50",
      "thumbnail": "https://sub.music8.jp/wp-content/uploads/DJ-Kool-Herc-B-Boy-Boogie.jpg",
      "videoId": "2_2CHTE975Q",
      "spotifyTrackId": "",
      "content": "<p>DJ Kool Herc - B-Boy Boogie</p>\n",
      "acf": {
        "artist_order": [
          ""
        ],
        "spotify_artists": [
          ""
        ],
        "likecount": "1"
      },
      "slug": "b-boy-boogie"
    },
    {
      "id": 73699,
      "title": "Superwolf Can Do It",
      "titleSlug": "superwolf-can-do-it",
      "artists": [
        {
          "id": 5452,
          "name": "Super-Wolf",
          "slug": "super-wolf",
          "prefix": "",
          "artistorigin": "US"
        }
      ],
      "genres": [
        {
          "name": "Old-school hip hop",
          "slug": "old-school-hip-hop",
          "term_id": 647
        }
      ],
      "styles": [
        2848
      ],
      "vocals": [
        {
          "name": "M",
          "slug": "male",
          "term_id": 2866
        }
      ],
      "releaseDate": "1980-01-01T11:16:57",
      "thumbnail": "https://sub.music8.jp/wp-content/uploads/ab67616d0000b2730db30e1527939337c8ca8ca4.jpg",
      "videoId": "qSh_qpzvK-g",
      "spotifyTrackId": "2hqpVN7Gu1C1EMasRuXqGp",
      "content": "<p>Super-Wolf - Superwolf Can Do It</p>\n",
      "acf": {
        "artist_order": [
          ""
        ],
        "spotify_artists": [
          "Superwolf"
        ],
        "likecount": "1"
      },
      "slug": "superwolf-can-do-it"
    },
    {
      "id": 73681,
      "title": "High Power Rap",
      "titleSlug": "high-power-rap",
      "artists": [
        {
          "id": 5449,
          "name": "Crash Crew",
          "slug": "crash-crew",
          "prefix": "",
          "artistorigin": "US"
        }
      ],
      "genres": [
        {
          "name": "Old-school hip hop",
          "slug": "old-school-hip-hop",
          "term_id": 647
        }
      ],
      "styles": [
        2848
      ],
      "vocals": [
        {
          "name": "M",
          "slug": "male",
          "term_id": 2866
        }
      ],
      "releaseDate": "1980-01-01T10:47:40",
      "thumbnail": "https://sub.music8.jp/wp-content/uploads/ab67616d0000b2731f9ba10bad3d1acc71a5ba2e.jpg",
      "videoId": "2MhxSPUwx1w",
      "spotifyTrackId": "6OsSCG6FI5PCidvxgSvX4M",
      "content": "<p>Crash Crew - High Power Rap</p>\n",
      "acf": {
        "artist_order": [
          ""
        ],
        "spotify_artists": [
          "Crash Crew"
        ],
        "likecount": "1"
      },
      "slug": "high-power-rap"
    },
    {
      "id": 73378,
      "title": "Rapper's Delight",
      "titleSlug": "rappers-delight",
      "artists": [
        {
          "id": 5415,
          "name": "Sugarhill Gang",
          "slug": "sugarhill-gang",
          "prefix": "1",
          "artistorigin": "US"
        }
      ],
      "genres": [
        {
          "name": "Disco",
          "slug": "disco",
          "term_id": 482
        },
        {
          "name": "Funk",
          "slug": "funk",
          "term_id": 524
        },
        {
          "name": "Old-school hip hop",
          "slug": "old-school-hip-hop",
          "term_id": 647
        }
      ],
      "styles": [
        2848
      ],
      "vocals": [
        {
          "name": "M",
          "slug": "male",
          "term_id": 2866
        }
      ],
      "releaseDate": "1979-09-16T19:17:21",
      "thumbnail": "https://sub.music8.jp/wp-content/uploads/ab67616d0000b2733c2cd46bec94c4d0a34d9223.jpg",
      "videoId": "IOD0DQ7AN5Q",
      "spotifyTrackId": "1FnxNtKli7rcB9IU4J8MEg",
      "content": "<p>Sugarhill Gang - Rapper's Delight</p>\n",
      "acf": {
        "artist_order": [
          ""
        ],
        "spotify_artists": [
          "シュガーヒル・ギャング"
        ],
        "likecount": "1"
      },
      "slug": "rappers-delight"
    },
    {
      "id": 73466,
      "title": "King Tim III (Personality Jock)",
      "titleSlug": "king-tim-iii-personality-jock",
      "artists": [
        {
          "id": 5422,
          "name": "Fatback Band",
          "slug": "fatback-band",
          "prefix": "1",
          "artistorigin": "US"
        }
      ],
      "genres": [
        {
          "name": "Funk",
          "slug": "funk",
          "term_id": 524
        },
        {
          "name": "Old-school hip hop",
          "slug": "old-school-hip-hop",
          "term_id": 647
        }
      ],
      "styles": [
        2848
      ],
      "vocals": [
        {
          "name": "M",
          "slug": "male",
          "term_id": 2866
        }
      ],
      "releaseDate": "1979-03-25T21:41:52",
      "thumbnail": "https://sub.music8.jp/wp-content/uploads/ab67616d0000b2730417fdf9bd3a276da664f6c4.jpg",
      "videoId": "LzbX7P7agt8",
      "spotifyTrackId": "4XLvVOpUH0r4cQvO1iQIh5",
      "content": "<p>The Fatback Band - King Tim III (Personality Jock)</p>\n",
      "acf": {
        "artist_order": [
          ""
        ],
        "spotify_artists": [
          "Fatback Band"
        ],
        "likecount": "1"
      },
      "slug": "king-tim-iii-personality-jock"
    },
    {
      "id": 73542,
      "title": "Rappin' and Rocking the House",
      "titleSlug": "rappin-and-rocking-the-house",
      "artists": [
        {
          "id": 5428,
          "name": "Funky 4+1",
          "slug": "funky-41",
          "prefix": "",
          "artistorigin": "US"
        }
      ],
      "genres": [
        {
          "name": "Old-school hip hop",
          "slug": "old-school-hip-hop",
          "term_id": 647
        }
      ],
      "styles": [
        2848
      ],
      "vocals": [
        {
          "name": "F",
          "slug": "female",
          "term_id": 2851
        },
        {
          "name": "M",
          "slug": "male",
          "term_id": 2866
        }
      ],
      "releaseDate": "1979-01-01T23:50:39",
      "thumbnail": "https://sub.music8.jp/wp-content/uploads/ab67616d0000b2731e6f4cca61eb7fb0432e12cb.jpg",
      "videoId": "Cy6vuT8E1DQ",
      "spotifyTrackId": "0ReD4qpMBBi9PhFq64Ojd4",
      "content": "<p>Funky 4+1 - Rappin' and Rocking the House</p>\n",
      "acf": {
        "artist_order": [
          ""
        ],
        "spotify_artists": [
          "Funky 4 + 1"
        ],
        "likecount": "1"
      },
      "slug": "rappin-and-rocking-the-house"
    },
    {
      "id": 73516,
      "title": "Spoonin' Rap",
      "titleSlug": "spoonin-rap",
      "artists": [
        {
          "id": 5427,
          "name": "Spoonie Gee",
          "slug": "spoonie-gee",
          "prefix": "",
          "artistorigin": "US"
        }
      ],
      "genres": [
        {
          "name": "Old-school hip hop",
          "slug": "old-school-hip-hop",
          "term_id": 647
        }
      ],
      "styles": [
        2848
      ],
      "vocals": [
        {
          "name": "M",
          "slug": "male",
          "term_id": 2866
        }
      ],
      "releaseDate": "1979-01-01T23:18:36",
      "thumbnail": "https://sub.music8.jp/wp-content/uploads/ab67616d0000b2733be5217c5ef0f61f6d54a09b.jpg",
      "videoId": "bxN1xrLRvGU",
      "spotifyTrackId": "4vewz25psIBXXfQGjJusjx",
      "content": "<p>Spoonie Gee - Spoonin' Rap</p>\n",
      "acf": {
        "artist_order": [
          ""
        ],
        "spotify_artists": [
          "Spoonie Gee"
        ],
        "likecount": "1"
      },
      "slug": "spoonin-rap"
    }
  ]
}